Automatic Differentiation · Scientific Computing For Physicists
…
 Memory estimate: 0 bytes, allocs estimate: 0.
Example: Hit the earth
Let us consider a simple example of throwing a stone on Pluto to hit the earth. To goal is to find the initial velocity $v_0$ such that the stone hits the earth.
The following code is based on the PhysicsSimulation package in the demo repository. Clone the repository to local and run the following command in a terminal to start the Julia REPL:

$ make init-PhysicsSimulation  # install dependencies
$ make example-PhysicsSimulation  # run the example (optional)
$ cd PhysicsSimulation
$ julia --project=examples
The solar system is defined as

julia> using PhysicsSimulation

julia> data = PhysicsSimulation.Bodies.solar_system_data()
10×8 DataFrame
 Row │ name     mass        x             y             z            vx           vy            vz           
     │ String7  Float64     Float64       Float64       Float64      Float64      Float64       Float64      
─────┼───────────────────────────────────────────────────────────────────────────────────────────────────────
   1 │ sun      1.98854e30   -0.00343003    0.00176188   1.24669e-5   3.43312e-6  -5.2313e-6    -2.97297e-8
   2 │ mercury  3.302e23      0.0888799    -0.442615    -0.0447572    0.0219088    0.00716157   -0.00142593
  ⋮  │    ⋮         ⋮            ⋮             ⋮             ⋮            ⋮            ⋮             ⋮
  10 │ pluto    1.307e22    -21.2907      -18.9663       8.18796      0.0022763   -0.00267048   -0.000366955
                                                                                               7 rows omitted
…
